{
  "project_info": {
    "project_number": "387700806376",
    "firebase_url": "https://appchat-43c72.firebaseio.com",
    "project_id": "appchat-43c72",
    "storage_bucket": "appchat-43c72.appspot.com"
  },
  "client": [
    {
      "client_info": {
        "mobilesdk_app_id": "1:387700806376:android:12ae4b33aab012a1daef5d",
        "android_client_info": {
          "package_name": "com.example.advis"
        }
      },
      "oauth_client": [
        {
          "client_id": "387700806376-ut5psec8eqc5t3mfqs3n8u44m2a7g4fl.apps.googleusercontent.com",
          "client_type": 3
        }
      ],
      "api_key": [
        {
          "current_key": "AIzaSyDKZWaEBa1THegk8VGggh2dmCHomNYWr3Y"
        }
      ],
      "services": {
        "appinvite_service": {
          "other_platform_oauth_client": [
            {
              "client_id": "387700806376-ut5psec8eqc5t3mfqs3n8u44m2a7g4fl.apps.googleusercontent.com",
              "client_type": 3
            }
          ]
        }
      }
    }
  ],
  "configuration_version": "1"
}